%YAML 1.1
%TAG !u! tag:unity3d.com,2011:
--- !u!114 &11400000
MonoBehaviour:
  m_ObjectHideFlags: 0
  m_CorrespondingSourceObject: {fileID: 0}
  m_PrefabInstance: {fileID: 0}
  m_PrefabAsset: {fileID: 0}
  m_GameObject: {fileID: 0}
  m_Enabled: 1
  m_EditorHideFlags: 0
  m_Script: {fileID: 11500000, guid: 3863c9d352f544c6ade199d8887aa00c, type: 3}
  m_Name: Crystals
  m_EditorClassIdentifier: 
  _cards:
  - _name: Card1
    _sprite: {fileID: 21300000, guid: ebe01107454174e5f87008c07eb70e41, type: 3}
  - _name: Card2
    _sprite: {fileID: 21300000, guid: 685fb87b86fec42558c05979b75ff2f6, type: 3}
  - _name: Card3
    _sprite: {fileID: 21300000, guid: 5d581d4bef9274c588de12a46c12e708, type: 3}
  - _name: Card4
    _sprite: {fileID: 21300000, guid: ae70d5f1d23f14f36b7aa2bd254a8853, type: 3}
  - _name: Card5
    _sprite: {fileID: 21300000, guid: 4b9a0895740ad4ce0bb4d663a9bb4474, type: 3}
  - _name: Card6
    _sprite: {fileID: 21300000, guid: 0bedc5e6d2dfb4984bd3080856ad4700, type: 3}
  - _name: Card7
    _sprite: {fileID: 21300000, guid: 56cacee8850174792979792f5f39ef3e, type: 3}
  - _name: Card8
    _sprite: {fileID: 21300000, guid: 9341b63a881364e709624cfe01039833, type: 3}
  - _name: Card9
    _sprite: {fileID: 21300000, guid: 6aaa7c7b5d2a041688ed47be1f78b31b, type: 3}
