%YAML 1.1
%TAG !u! tag:unity3d.com,2011:
--- !u!114 &11400000
MonoBehaviour:
  m_ObjectHideFlags: 0
  m_CorrespondingSourceObject: {fileID: 0}
  m_PrefabInstance: {fileID: 0}
  m_PrefabAsset: {fileID: 0}
  m_GameObject: {fileID: 0}
  m_Enabled: 1
  m_EditorHideFlags: 0
  m_Script: {fileID: 11500000, guid: cfe69b1ace96439d893b1ed13363847f, type: 3}
  m_Name: CrystalCardsBoardSettings
  m_EditorClassIdentifier: 
  _cardsSetSettings: {fileID: 11400000, guid: b5d5aedfe34bebc4ca8ffdf95b750256, type: 2}
  _cardNames:
  - Card1
  - Card2
  - Card3
  - Card4
  - Card5
  - Card6
  - Card7
  - Card8
